…
#economic efficiency with education
data1 %>%
  group_by(country) %>%
  mutate('gdp/education'= rgdp60/education) %>%
  summarise(`gdp/education`) %>%
  arrange(desc(`gdp/education`))
```

    ## # A tibble: 65 x 2
    ##    country             `gdp/education`
    ##    <chr>                         <dbl>
    ##  1 Niger                         2660.
    ##  2 Venezuela                     2505.
    ##  3 Sierra Leone                  1657.
    ##  4 Austria                       1409.
    ##  5 Switzerland                   1370.
    ##  6 Togo                          1359.
    ##  7 Haiti                         1320.
    ##  8 Trinidad and Tobago           1306.
    ##  9 Ghana                         1296.
    ## 10 France                        1252.
    ## # ... with 55 more rows

``` r
#rate of assassinations per revolution if country had both an assassination and a revolution
data1 %>%
  group_by(country) %>%
  filter(assassinations>0, revolutions>0) %>%
  mutate('assassinations/revolution'=assassinations/revolutions) %>%
  summarise(`assassinations/revolution`) %>%
  arrange(desc(`assassinations/revolution`))
```

    ## # A tibble: 38 x 2
    ##    country      `assassinations/revolution`
    ##    <chr>                              <dbl>
    ##  1 Italy                              36.0 
    ##  2 Spain                              21.5 
    ##  3 Colombia                            7.67
    ##  4 India                               6.50
    ##  5 Guatemala                           4.56
    ##  6 Kenya                               4.33
    ##  7 South Africa                        3.67
    ##  8 Germany                             3.50
    ##  9 Israel                              3.00
    ## 10 Chile                               2.80
    ## # ... with 28 more rows

``` r
#Finding country with most economic growth
data1 %>%
  group_by(country) %>%
  summarise(`growth`) %>%
  arrange(desc(`growth`))
```

    ## # A tibble: 65 x 2
    ##    country            growth
    ##    <chr>               <dbl>
    ##  1 Korea, Republic of   7.16
    ##  2 Malta                6.65
    ##  3 Taiwan, China        6.62
    ##  4 Cyprus               5.38
    ##  5 Thailand             4.88
    ##  6 Japan                4.30
    ##  7 Malaysia             4.11
    ##  8 Portugal             3.65
    ##  9 Ireland              3.25
    ## 10 Greece               3.22
    ## # ... with 55 more rows
…
